{  
  "title": "Temperature x Precipitation",
  "visState": "{\"title\":\"Temperature x Precipitation\",\"type\":\"histogram\",\"params\":{\"addLegend\":true,\"addTimeMarker\":false,\"addTooltip\":true,\"categoryAxes\":[{\"id\":\"CategoryAxis-1\",\"labels\":{\"show\":true,\"truncate\":100},\"position\":\"bottom\",\"scale\":{\"type\":\"linear\"},\"show\":true,\"style\":{},\"title\":{\"text\":\"date per 3 hours\"},\"type\":\"category\"}],\"grid\":{\"categoryLines\":false,\"style\":{\"color\":\"#eee\"}},\"legendPosition\":\"right\",\"seriesParams\":[{\"data\":{\"id\":\"1\",\"label\":\"Average precipitation\"},\"drawLinesBetweenPoints\":true,\"interpolate\":\"cardinal\",\"mode\":\"stacked\",\"show\":\"true\",\"showCircles\":false,\"type\":\"area\",\"valueAxis\":\"ValueAxis-2\"},{\"data\":{\"id\":\"3\",\"label\":\"Average temperature\"},\"drawLinesBetweenPoints\":true,\"interpolate\":\"cardinal\",\"lineWidth\":2,\"mode\":\"stacked\",\"show\":true,\"showCircles\":false,\"type\":\"line\",\"valueAxis\":\"ValueAxis-1\"}],\"times\":[],\"valueAxes\":[{\"id\":\"ValueAxis-1\",\"labels\":{\"filter\":false,\"rotate\":0,\"show\":true,\"truncate\":100},\"name\":\"LeftAxis-1\",\"position\":\"left\",\"scale\":{\"defaultYExtents\":false,\"mode\":\"normal\",\"setYExtents\":false,\"type\":\"linear\"},\"show\":true,\"style\":{},\"title\":{\"text\":\"Average temperature\"},\"type\":\"value\"},{\"id\":\"ValueAxis-2\",\"labels\":{\"filter\":false,\"rotate\":0,\"show\":true,\"truncate\":100},\"name\":\"RightAxis-1\",\"position\":\"right\",\"scale\":{\"mode\":\"normal\",\"type\":\"linear\"},\"show\":true,\"style\":{},\"title\":{\"text\":\"Average precipitation\"},\"type\":\"value\"}]},\"aggs\":[{\"id\":\"1\",\"enabled\":true,\"type\":\"avg\",\"schema\":\"metric\",\"params\":{\"field\":\"precipitation\"}},{\"id\":\"2\",\"enabled\":true,\"type\":\"date_histogram\",\"schema\":\"segment\",\"params\":{\"field\":\"date\",\"interval\":\"auto\",\"customInterval\":\"2h\",\"min_doc_count\":1,\"extended_bounds\":{}}},{\"id\":\"3\",\"enabled\":true,\"type\":\"avg\",\"schema\":\"metric\",\"params\":{\"field\":\"temperature\"}}],\"listeners\":{}}",
  "uiStateJSON": "{\"vis\":{\"colors\":{\"Average precipitation\":\"#6ED0E0\",\"Average temperature\":\"#052B51\",\"Average humidity\":\"#BF1B00\"},\"legendOpen\":false}}",
  "description": "",
  "version": 1,
  "kibanaSavedObjectMeta": {
    "searchSourceJSON": "{\"index\":\"measurement\",\"query\":{\"match_all\":{}},\"filter\":[]}"
  }
}